%EventDef	PajeDefineContainerType 1
%	Alias string
%	ContainerType string
%	Name string
%EndEventDef
%EventDef	PajeDefineStateType 3
%	Alias string
%	ContainerType string
%	Name string
%EndEventDef
%EventDef	PajeDefineEntityValue 6
%	Alias string
%	EntityType string
%	Name string
%EndEventDef
%EventDef	PajeCreateContainer 7
%	Time date
%	Alias string
%	Type string
%	Container string
%	Name string
%EndEventDef
%EventDef	PajeDestroyContainer 8
%	Time date
%	Name string
%	Type string
%EndEventDef
%EventDef	PajeSetState 10
%	Time date
%	Type string
%	Container string
%	Value string
%EndEventDef
1 P 0 Program
1 T P Threads
1 TK T Tasks
3 ThS T "Thread State"
3 TaS TK "Task State"
6 E1 ThS Executing
6 E2 TaS Executing
7 28904468 PC P 0 "Program"
7 28904468 T1 T PC "Thread 1"
10 28904468 ThS T1 E1
8 28904620 T1 T
7 28904668 T26 T PC "Thread 26"
10 28904668 ThS T26 E1
7 28904668 T26TK0 TK T26 "Task ID 0 doMerge"
10 28904668 TaS T26TK0 E2
8 28974441 T26TK0 TK
8 28974441 T26 T
